[
  {
    "end": 10,
    "page": 1,
    "page_size": 10,
    "pages": 2,
    "start": 1,
    "subjects": [
      {
        "answer_explanation": "<p></p>",
        "answer_number": 0,
        "audit_status": "agree",
        "correct_answers": [],
        "data": null,
        "description": "<p>郵政簡易人壽心e88定期壽險，</p>",
        "difficulty_level": "medium",
        "id": 2935,
        "last_updated_at": "2025-02-13T18:55:24Z",
        "note": null,
        "options": [
          {
            "content": "<p>為網路投保商品</p>",
            "id": 10377,
            "is_answer": false,
            "sort": 0,
            "type": "text"
          },
          {
            "content": "<p>投保年齡：18足歲~60歲</p>",
            "id": 10378,
            "is_answer": false,
            "sort": 1,
            "type": "text"
          },
          {
            "content": "<p>扣款帳戶：限要保人本人之郵政儲金帳戶</p>",
            "id": 10379,
            "is_answer": false,
            "sort": 2,
            "type": "text"
          },
          {
            "content": "<p>以上皆是</p>",
            "id": 10380,
            "is_answer": true,
            "sort": 3,
            "type": "text"
          }
        ],
        "parent_id": 0,
        "point": null,
        "settings": {
          "options_layout": "vertical"
        },
        "sort": 19,
        "sub_subjects": [],
        "type": "single_selection",
        "wrong_explanation": ""
      },
      {
        "answer_explanation": "<p></p>",
        "answer_number": 0,
        "audit_status": "agree",
        "correct_answers": [],
        "data": null,
        "description": "<p>保戶不熟悉網路投保之操作，下列作法何者正確？</p>",
        "difficulty_level": "medium",
        "id": 2934,
        "last_updated_at": "2025-02-13T18:55:24Z",
        "note": null,
        "options": [
          {
            "content": "<p>由業務員代為設定帳號及密碼</p>",
            "id": 10373,
            "is_answer": false,
            "sort": 0,
            "type": "text"
          },
          {
            "content": "<p>將經辦郵局地址設為保戶通訊地址</p>",
            "id": 10374,
            "is_answer": false,
            "sort": 1,
            "type": "text"
          },
          {
            "content": "<p>得從旁協助，並請保戶親自設定/輸入帳號及密碼</p>",
            "id": 10375,
            "is_answer": true,
            "sort": 2,
            "type": "text"
          },
          {
            "content": "<p>請保戶提供帳號及密碼予業務員，逕由業務員辦理網路投保</p>",
            "id": 10376,
            "is_answer": false,
            "sort": 3,
            "type": "text"
          }
        ],
        "parent_id": 0,
        "point": null,
        "settings": {
          "options_layout": "vertical"
        },
        "sort": 18,
        "sub_subjects": [],
        "type": "single_selection",
        "wrong_explanation": ""
      },
      {
        "answer_explanation": "<p></p>",
        "answer_number": 0,
        "audit_status": "agree",
        "correct_answers": [],
        "data": null,
        "description": "<p>有關網路投保要保人、被保險人資格限制，何者正確？</p>",
        "difficulty_level": "medium",
        "id": 2933,
        "last_updated_at": "2025-02-13T18:55:24Z",
        "note": null,
        "options": [
          {
            "content": "<p>要保人、被保險人限同一人</p>",
            "id": 10369,
            "is_answer": true,
            "sort": 0,
            "type": "text"
          },
          {
            "content": "<p>未成年人亦得投保</p>",
            "id": 10370,
            "is_answer": false,
            "sort": 1,
            "type": "text"
          },
          {
            "content": "<p>受有輔助宣告者，不需經輔助人同意</p>",
            "id": 10371,
            "is_answer": false,
            "sort": 2,
            "type": "text"
          },
          {
            "content": "<p>身故受益人不以直系血親、配偶或法定繼承人為限</p>",
            "id": 10372,
            "is_answer": false,
            "sort": 3,
            "type": "text"
          }
        ],
        "parent_id": 0,
        "point": null,
        "settings": {
          "options_layout": "vertical"
        },
        "sort": 17,
        "sub_subjects": [],
        "type": "single_selection",
        "wrong_explanation": ""
      },
      {
        "answer_explanation": "<p></p>",
        "answer_number": 0,
        "audit_status": "agree",
        "correct_answers": [],
        "data": null,
        "description": "<p>依本公司檢舉制度實施要點，檢舉案件之調查，應依下列原則為之</p>",
        "difficulty_level": "medium",
        "id": 2932,
        "last_updated_at": "2025-02-13T18:55:24Z",
        "note": null,
        "options": [
          {
            "content": "<p>應以公開之方式為之</p>",
            "id": 10365,
            "is_answer": false,
            "sort": 0,
            "type": "text"
          },
          {
            "content": "<p>對於被檢舉人原則上禁止訪談</p>",
            "id": 10366,
            "is_answer": true,
            "sort": 1,
            "type": "text"
          },
          {
            "content": "<p>製作訪談筆錄前，不須徵得被訪談人同意</p>",
            "id": 10367,
            "is_answer": false,
            "sort": 2,
            "type": "text"
          },
          {
            "content": "<p>進行訪談時，僅須1名訪談人員在場</p>",
            "id": 10368,
            "is_answer": false,
            "sort": 3,
            "type": "text"
          }
        ],
        "parent_id": 0,
        "point": null,
        "settings": {
          "options_layout": "vertical"
        },
        "sort": 16,
        "sub_subjects": [],
        "type": "single_selection",
        "wrong_explanation": ""
      },
      {
        "answer_explanation": "<p></p>",
        "answer_number": 0,
        "audit_status": "agree",
        "correct_answers": [],
        "data": null,
        "description": "<p>依本公司檢舉制度實施要點，檢舉人得以何種方式向本公司提出檢舉？</p>",
        "difficulty_level": "medium",
        "id": 2931,
        "last_updated_at": "2025-02-13T18:55:24Z",
        "note": null,
        "options": [
          {
            "content": "<p>書面</p>",
            "id": 10361,
            "is_answer": false,
            "sort": 0,
            "type": "text"
          },
          {
            "content": "<p>電子郵件</p>",
            "id": 10362,
            "is_answer": false,
            "sort": 1,
            "type": "text"
          },
          {
            "content": "<p>電話</p>",
            "id": 10363,
            "is_answer": false,
            "sort": 2,
            "type": "text"
          },
          {
            "content": "<p>以上皆可</p>",
            "id": 10364,
            "is_answer": true,
            "sort": 3,
            "type": "text"
          }
        ],
        "parent_id": 0,
        "point": null,
        "settings": {
          "options_layout": "vertical"
        },
        "sort": 15,
        "sub_subjects": [],
        "type": "single_selection",
        "wrong_explanation": ""
      },
      {
        "answer_explanation": "<p></p>",
        "answer_number": 0,
        "audit_status": "agree",
        "correct_answers": [],
        "data": null,
        "description": "<p>下列何者敘述正確？</p>",
        "difficulty_level": "medium",
        "id": 2930,
        "last_updated_at": "2025-02-13T18:55:24Z",
        "note": null,
        "options": [
          {
            "content": "<p>業務員不得使用自行製作的文宣</p>",
            "id": 10357,
            "is_answer": false,
            "sort": 0,
            "type": "text"
          },
          {
            "content": "<p>成立保險契約時，一定要親晤並親見保戶親簽</p>",
            "id": 10358,
            "is_answer": false,
            "sort": 1,
            "type": "text"
          },
          {
            "content": "<p>要保書的告知事項欄位須由要保人或被保險人親自填寫</p>",
            "id": 10359,
            "is_answer": false,
            "sort": 2,
            "type": "text"
          },
          {
            "content": "<p>以上皆是</p>",
            "id": 10360,
            "is_answer": true,
            "sort": 3,
            "type": "text"
          }
        ],
        "parent_id": 0,
        "point": null,
        "settings": {
          "options_layout": "vertical"
        },
        "sort": 14,
        "sub_subjects": [],
        "type": "single_selection",
        "wrong_explanation": ""
      },
      {
        "answer_explanation": "<p></p>",
        "answer_number": 0,
        "audit_status": "agree",
        "correct_answers": [],
        "data": null,
        "description": "<p>為防範電子郵件社交工程，有關電子郵件安全性設定，何者正確？</p>",
        "difficulty_level": "medium",
        "id": 2929,
        "last_updated_at": "2025-02-13T18:55:24Z",
        "note": null,
        "options": [
          {
            "content": "<p>取消預覽功能</p>",
            "id": 10353,
            "is_answer": false,
            "sort": 0,
            "type": "text"
          },
          {
            "content": "<p>設定純文字讀取</p>",
            "id": 10354,
            "is_answer": false,
            "sort": 1,
            "type": "text"
          },
          {
            "content": "<p>取消自動下載圖片與檔案</p>",
            "id": 10355,
            "is_answer": false,
            "sort": 2,
            "type": "text"
          },
          {
            "content": "<p>以上皆是</p>",
            "id": 10356,
            "is_answer": true,
            "sort": 3,
            "type": "text"
          }
        ],
        "parent_id": 0,
        "point": null,
        "settings": {
          "options_layout": "vertical"
        },
        "sort": 13,
        "sub_subjects": [],
        "type": "single_selection",
        "wrong_explanation": ""
      },
      {
        "answer_explanation": "<p></p>",
        "answer_number": 0,
        "audit_status": "agree",
        "correct_answers": [],
        "data": null,
        "description": "<p>有關金融服務業公平待客原則中之「商品或服務適合度原則」，下列何者正確？</p>",
        "difficulty_level": "medium",
        "id": 2928,
        "last_updated_at": "2025-02-13T18:55:24Z",
        "note": null,
        "options": [
          {
            "content": "<p>與客戶訂立提供金融商品或服務之契約前，應充分瞭解客戶之相關資料</p>",
            "id": 10349,
            "is_answer": true,
            "sort": 0,
            "type": "text"
          },
          {
            "content": "<p>一律推薦酬金較高之金融商品給客戶</p>",
            "id": 10350,
            "is_answer": false,
            "sort": 1,
            "type": "text"
          },
          {
            "content": "<p>為求業績達標，未瞭解客戶資料，即推薦提供公司最新商品</p>",
            "id": 10351,
            "is_answer": false,
            "sort": 2,
            "type": "text"
          },
          {
            "content": "<p>提供客戶複雜性高風險商品，以顯示公司業務員之專業</p>",
            "id": 10352,
            "is_answer": false,
            "sort": 3,
            "type": "text"
          }
        ],
        "parent_id": 0,
        "point": null,
        "settings": {
          "options_layout": "vertical"
        },
        "sort": 12,
        "sub_subjects": [],
        "type": "single_selection",
        "wrong_explanation": ""
      },
      {
        "answer_explanation": "<p></p>",
        "answer_number": 0,
        "audit_status": "agree",
        "correct_answers": [],
        "data": null,
        "description": "<p>下列何者為金融服務業公平待客原則之內涵？</p>",
        "difficulty_level": "medium",
        "id": 2927,
        "last_updated_at": "2025-02-13T18:55:24Z",
        "note": null,
        "options": [
          {
            "content": "<p>注意與忠實義務原則</p>",
            "id": 10345,
            "is_answer": false,
            "sort": 0,
            "type": "text"
          },
          {
            "content": "<p>廣告招攬真實原則</p>",
            "id": 10346,
            "is_answer": false,
            "sort": 1,
            "type": "text"
          },
          {
            "content": "<p>告知與揭露原則</p>",
            "id": 10347,
            "is_answer": false,
            "sort": 2,
            "type": "text"
          },
          {
            "content": "<p>以上皆是</p>",
            "id": 10348,
            "is_answer": true,
            "sort": 3,
            "type": "text"
          }
        ],
        "parent_id": 0,
        "point": null,
        "settings": {
          "options_layout": "vertical"
        },
        "sort": 11,
        "sub_subjects": [],
        "type": "single_selection",
        "wrong_explanation": ""
      },
      {
        "answer_explanation": "<p></p>",
        "answer_number": 0,
        "audit_status": "agree",
        "correct_answers": [],
        "data": null,
        "description": "<p>依金融消費者保護法第13條規定，</p>",
        "difficulty_level": "medium",
        "id": 2926,
        "last_updated_at": "2025-02-13T18:55:24Z",
        "note": null,
        "options": [
          {
            "content": "<p>金融消費者就金融消費爭議事件不須先向金融服務業提出申訴</p>",
            "id": 10341,
            "is_answer": false,
            "sort": 0,
            "type": "text"
          },
          {
            "content": "<p>金融服務業應於收受申訴之日起30日內為適當之處理，並將處理結果回覆提出申訴之金融消費者</p>",
            "id": 10342,
            "is_answer": true,
            "sort": 1,
            "type": "text"
          },
          {
            "content": "<p>金融消費者不接受處理結果者或金融服務業逾上述期限不為處理者，金融消費者得於收受處理結果或期限屆滿之日起20年內，向爭議處理機構申請評議</p>",
            "id": 10343,
            "is_answer": false,
            "sort": 2,
            "type": "text"
          },
          {
            "content": "<p>為迅速有效處理金融消費爭議，爭議處理機構受理案件後應直接請金融消費者向法院提告</p>",
            "id": 10344,
            "is_answer": false,
            "sort": 3,
            "type": "text"
          }
        ],
        "parent_id": 0,
        "point": null,
        "settings": {
          "options_layout": "vertical"
        },
        "sort": 10,
        "sub_subjects": [],
        "type": "single_selection",
        "wrong_explanation": ""
      }
    ],
    "total": 20
  },
  {
    "end": 20,
    "page": 2,
    "page_size": 10,
    "pages": 2,
    "start": 11,
    "subjects": [
      {
        "answer_explanation": "<p></p>",
        "answer_number": 0,
        "audit_status": "agree",
        "correct_answers": [],
        "data": null,
        "description": "<p>業務員受理身心障礙者之投保，應遵循之原則何者正確？</p>",
        "difficulty_level": "medium",
        "id": 2925,
        "last_updated_at": "2025-02-13T18:55:24Z",
        "note": null,
        "options": [
          {
            "content": "<p>僅參閱核保手冊，由業務員自行判斷被保險人是否符合承保條件</p>",
            "id": 10337,
            "is_answer": false,
            "sort": 0,
            "type": "text"
          },
          {
            "content": "<p>與一般投保件處理流程不同，應先請示經理</p>",
            "id": 10338,
            "is_answer": false,
            "sort": 1,
            "type": "text"
          },
          {
            "content": "<p>業務員先受理投保，將契約資料送交核保單位審核後，再由核保單位決定是否承保</p>",
            "id": 10339,
            "is_answer": true,
            "sort": 2,
            "type": "text"
          },
          {
            "content": "<p>以上皆非</p>",
            "id": 10340,
            "is_answer": false,
            "sort": 3,
            "type": "text"
          }
        ],
        "parent_id": 0,
        "point": null,
        "settings": {
          "options_layout": "vertical"
        },
        "sort": 9,
        "sub_subjects": [],
        "type": "single_selection",
        "wrong_explanation": ""
      },
      {
        "answer_explanation": "<p></p>",
        "answer_number": 0,
        "audit_status": "agree",
        "correct_answers": [],
        "data": null,
        "description": "<p>下列何者為高風險客戶之審查頻率？</p>",
        "difficulty_level": "medium",
        "id": 2924,
        "last_updated_at": "2025-02-13T18:55:24Z",
        "note": null,
        "options": [
          {
            "content": "<p>至少每年一次</p>",
            "id": 10333,
            "is_answer": true,
            "sort": 0,
            "type": "text"
          },
          {
            "content": "<p>至少2年一次</p>",
            "id": 10334,
            "is_answer": false,
            "sort": 1,
            "type": "text"
          },
          {
            "content": "<p>至少3年一次</p>",
            "id": 10335,
            "is_answer": false,
            "sort": 2,
            "type": "text"
          },
          {
            "content": "<p>至少4年一次</p>",
            "id": 10336,
            "is_answer": false,
            "sort": 3,
            "type": "text"
          }
        ],
        "parent_id": 0,
        "point": null,
        "settings": {
          "options_layout": "vertical"
        },
        "sort": 8,
        "sub_subjects": [],
        "type": "single_selection",
        "wrong_explanation": ""
      },
      {
        "answer_explanation": "<p></p>",
        "answer_number": 0,
        "audit_status": "agree",
        "correct_answers": [],
        "data": null,
        "description": "<p>以下何者為常被用來洗錢的管道？</p>",
        "difficulty_level": "medium",
        "id": 2923,
        "last_updated_at": "2025-02-13T18:55:24Z",
        "note": null,
        "options": [
          {
            "content": "<p>人頭帳戶</p>",
            "id": 10329,
            "is_answer": false,
            "sort": 0,
            "type": "text"
          },
          {
            "content": "<p>不動產交易</p>",
            "id": 10330,
            "is_answer": false,
            "sort": 1,
            "type": "text"
          },
          {
            "content": "<p>保險</p>",
            "id": 10331,
            "is_answer": false,
            "sort": 2,
            "type": "text"
          },
          {
            "content": "<p>以上皆是</p>",
            "id": 10332,
            "is_answer": true,
            "sort": 3,
            "type": "text"
          }
        ],
        "parent_id": 0,
        "point": null,
        "settings": {
          "options_layout": "vertical"
        },
        "sort": 7,
        "sub_subjects": [],
        "type": "single_selection",
        "wrong_explanation": ""
      },
      {
        "answer_explanation": "<p></p>",
        "answer_number": 0,
        "audit_status": "agree",
        "correct_answers": [],
        "data": null,
        "description": "<p>我國的金融情報中心為下列哪個單位？</p>",
        "difficulty_level": "medium",
        "id": 2922,
        "last_updated_at": "2025-02-13T18:55:24Z",
        "note": null,
        "options": [
          {
            "content": "<p>財政部國稅局</p>",
            "id": 10325,
            "is_answer": false,
            "sort": 0,
            "type": "text"
          },
          {
            "content": "<p>經濟部國際貿易局</p>",
            "id": 10326,
            "is_answer": false,
            "sort": 1,
            "type": "text"
          },
          {
            "content": "<p>法務部調查局</p>",
            "id": 10327,
            "is_answer": true,
            "sort": 2,
            "type": "text"
          },
          {
            "content": "<p>國防部政治作戰局</p>",
            "id": 10328,
            "is_answer": false,
            "sort": 3,
            "type": "text"
          }
        ],
        "parent_id": 0,
        "point": null,
        "settings": {
          "options_layout": "vertical"
        },
        "sort": 6,
        "sub_subjects": [],
        "type": "single_selection",
        "wrong_explanation": ""
      },
      {
        "answer_explanation": "<p></p>",
        "answer_number": 0,
        "audit_status": "agree",
        "correct_answers": [],
        "data": null,
        "description": "<p>下列何者為「組織犯罪」可能利用之洗錢管道？</p>",
        "difficulty_level": "medium",
        "id": 2921,
        "last_updated_at": "2025-02-13T18:55:24Z",
        "note": null,
        "options": [
          {
            "content": "<p>地下通匯</p>",
            "id": 10321,
            "is_answer": false,
            "sort": 0,
            "type": "text"
          },
          {
            "content": "<p>經營職業賭場</p>",
            "id": 10322,
            "is_answer": false,
            "sort": 1,
            "type": "text"
          },
          {
            "content": "<p>販毒集團</p>",
            "id": 10323,
            "is_answer": false,
            "sort": 2,
            "type": "text"
          },
          {
            "content": "<p>以上皆是</p>",
            "id": 10324,
            "is_answer": true,
            "sort": 3,
            "type": "text"
          }
        ],
        "parent_id": 0,
        "point": null,
        "settings": {
          "options_layout": "vertical"
        },
        "sort": 5,
        "sub_subjects": [],
        "type": "single_selection",
        "wrong_explanation": ""
      },
      {
        "answer_explanation": "<p></p>",
        "answer_number": 0,
        "audit_status": "agree",
        "correct_answers": [],
        "data": null,
        "description": "<p>下列何者為個人資料保護法所稱之個人資料？</p>",
        "difficulty_level": "medium",
        "id": 2920,
        "last_updated_at": "2025-02-13T18:55:24Z",
        "note": null,
        "options": [
          {
            "content": "<p>指紋</p>",
            "id": 10317,
            "is_answer": false,
            "sort": 0,
            "type": "text"
          },
          {
            "content": "<p>基因</p>",
            "id": 10318,
            "is_answer": false,
            "sort": 1,
            "type": "text"
          },
          {
            "content": "<p>護照號碼</p>",
            "id": 10319,
            "is_answer": false,
            "sort": 2,
            "type": "text"
          },
          {
            "content": "<p>以上皆是</p>",
            "id": 10320,
            "is_answer": true,
            "sort": 3,
            "type": "text"
          }
        ],
        "parent_id": 0,
        "point": null,
        "settings": {
          "options_layout": "vertical"
        },
        "sort": 4,
        "sub_subjects": [],
        "type": "single_selection",
        "wrong_explanation": ""
      },
      {
        "answer_explanation": "<p></p>",
        "answer_number": 0,
        "audit_status": "agree",
        "correct_answers": [],
        "data": null,
        "description": "<p>員工缺乏資訊安全意識，將可能導致</p>",
        "difficulty_level": "medium",
        "id": 2919,
        "last_updated_at": "2025-02-13T18:55:24Z",
        "note": null,
        "options": [
          {
            "content": "<p>公司敏感性資料被竊取</p>",
            "id": 10313,
            "is_answer": false,
            "sort": 0,
            "type": "text"
          },
          {
            "content": "<p>重要之系統主機遭駭客攻擊</p>",
            "id": 10314,
            "is_answer": false,
            "sort": 1,
            "type": "text"
          },
          {
            "content": "<p>公司聲譽及金錢損失</p>",
            "id": 10315,
            "is_answer": false,
            "sort": 2,
            "type": "text"
          },
          {
            "content": "<p>以上皆是</p>",
            "id": 10316,
            "is_answer": true,
            "sort": 3,
            "type": "text"
          }
        ],
        "parent_id": 0,
        "point": null,
        "settings": {
          "options_layout": "vertical"
        },
        "sort": 3,
        "sub_subjects": [],
        "type": "single_selection",
        "wrong_explanation": ""
      },
      {
        "answer_explanation": "<p></p>",
        "answer_number": 0,
        "audit_status": "agree",
        "correct_answers": [],
        "data": null,
        "description": "<p>向當事人蒐集個人資料時，依個人資料法之規定，應明確告知</p>",
        "difficulty_level": "medium",
        "id": 2918,
        "last_updated_at": "2025-02-13T18:55:24Z",
        "note": null,
        "options": [
          {
            "content": "<p>蒐集之目的</p>",
            "id": 10309,
            "is_answer": false,
            "sort": 0,
            "type": "text"
          },
          {
            "content": "<p>個人資料利用之期間、地區、對象及方式</p>",
            "id": 10310,
            "is_answer": false,
            "sort": 1,
            "type": "text"
          },
          {
            "content": "<p>當事人得自由選擇提供個人資料時，不提供將對其權益之影響</p>",
            "id": 10311,
            "is_answer": false,
            "sort": 2,
            "type": "text"
          },
          {
            "content": "<p>以上皆是</p>",
            "id": 10312,
            "is_answer": true,
            "sort": 3,
            "type": "text"
          }
        ],
        "parent_id": 0,
        "point": null,
        "settings": {
          "options_layout": "vertical"
        },
        "sort": 2,
        "sub_subjects": [],
        "type": "single_selection",
        "wrong_explanation": ""
      },
      {
        "answer_explanation": "<p></p>",
        "answer_number": 0,
        "audit_status": "agree",
        "correct_answers": [],
        "data": null,
        "description": "<p>除個人資料保護法第6條第1項所規定之資料外，非公務機關對個人資料之蒐集或處理，</p>",
        "difficulty_level": "medium",
        "id": 2917,
        "last_updated_at": "2025-02-13T18:55:24Z",
        "note": null,
        "options": [
          {
            "content": "<p>得任意蒐集</p>",
            "id": 10305,
            "is_answer": false,
            "sort": 0,
            "type": "text"
          },
          {
            "content": "<p>應有特定目的，並符合個人資料保護法規定之情形</p>",
            "id": 10306,
            "is_answer": true,
            "sort": 1,
            "type": "text"
          },
          {
            "content": "<p>經主管同意始得處理</p>",
            "id": 10307,
            "is_answer": false,
            "sort": 2,
            "type": "text"
          },
          {
            "content": "<p>以上皆非</p>",
            "id": 10308,
            "is_answer": false,
            "sort": 3,
            "type": "text"
          }
        ],
        "parent_id": 0,
        "point": null,
        "settings": {
          "options_layout": "vertical"
        },
        "sort": 1,
        "sub_subjects": [],
        "type": "single_selection",
        "wrong_explanation": ""
      },
      {
        "answer_explanation": "<p></p>",
        "answer_number": 0,
        "audit_status": "agree",
        "correct_answers": [],
        "data": null,
        "description": "<p>當事人就其個人資料依個人資料保護法得行使之權利為何？</p>",
        "difficulty_level": "medium",
        "id": 2916,
        "last_updated_at": "2025-02-13T18:55:24Z",
        "note": null,
        "options": [
          {
            "content": "<p>請求製給複製本</p>",
            "id": 10301,
            "is_answer": false,
            "sort": 0,
            "type": "text"
          },
          {
            "content": "<p>請求補充或更正</p>",
            "id": 10302,
            "is_answer": false,
            "sort": 1,
            "type": "text"
          },
          {
            "content": "<p>請求刪除</p>",
            "id": 10303,
            "is_answer": false,
            "sort": 2,
            "type": "text"
          },
          {
            "content": "<p>以上皆是</p>",
            "id": 10304,
            "is_answer": true,
            "sort": 3,
            "type": "text"
          }
        ],
        "parent_id": 0,
        "point": null,
        "settings": {
          "options_layout": "vertical"
        },
        "sort": 0,
        "sub_subjects": [],
        "type": "single_selection",
        "wrong_explanation": ""
      }
    ],
    "total": 20
  }
]